^D:\GIT\OPENGL\OPENGL\OPENGL\MAIN.CPP
C:\WINDOWS\GLOBALIZATION\SORTING\SORTDEFAULT.NLS
C:\PROGRAM FILES (X86)\MICROSOFT VISUAL STUDIO\2019\COMMUNITY\VC\TOOLS\MSVC\14.27.29110\BIN\HOSTX86\X86\1033\CLUI.DLL
C:\WINDOWS\SYSTEM32\TZRES.DLL
D:\GIT\OPENGL\OPENGL\OPENGL\LIBS.H
C:\PROGRAM FILES (X86)\MICROSOFT VISUAL STUDIO\2019\COMMUNITY\VC\TOOLS\MSVC\14.27.29110\INCLUDE\IOSTREAM
C:\PROGRAM FILES (X86)\MICROSOFT VISUAL STUDIO\2019\COMMUNITY\VC\TOOLS\MSVC\14.27.29110\INCLUDE\YVALS_CORE.H
C:\PROGRAM FILES (X86)\MICROSOFT VISUAL STUDIO\2019\COMMUNITY\VC\TOOLS\MSVC\14.27.29110\INCLUDE\VCRUNTIME.H
C:\PROGRAM FILES (X86)\MICROSOFT VISUAL STUDIO\2019\COMMUNITY\VC\TOOLS\MSVC\14.27.29110\INCLUDE\SAL.H
C:\PROGRAM FILES (X86)\MICROSOFT VISUAL STUDIO\2019\COMMUNITY\VC\TOOLS\MSVC\14.27.29110\INCLUDE\CONCURRENCYSAL.H
C:\PROGRAM FILES (X86)\MICROSOFT VISUAL STUDIO\2019\COMMUNITY\VC\TOOLS\MSVC\14.27.29110\INCLUDE\VADEFS.H
C:\PROGRAM FILES (X86)\MICROSOFT VISUAL STUDIO\2019\COMMUNITY\VC\TOOLS\MSVC\14.27.29110\INCLUDE\XKEYCHECK.H
C:\PROGRAM FILES (X86)\MICROSOFT VISUAL STUDIO\2019\COMMUNITY\VC\TOOLS\MSVC\14.27.29110\INCLUDE\ISTREAM
C:\PROGRAM FILES (X86)\MICROSOFT VISUAL STUDIO\2019\COMMUNITY\VC\TOOLS\MSVC\14.27.29110\INCLUDE\OSTREAM
C:\PROGRAM FILES (X86)\MICROSOFT VISUAL STUDIO\2019\COMMUNITY\VC\TOOLS\MSVC\14.27.29110\INCLUDE\IOS
C:\PROGRAM FILES (X86)\MICROSOFT VISUAL STUDIO\2019\COMMUNITY\VC\TOOLS\MSVC\14.27.29110\INCLUDE\XLOCNUM
C:\PROGRAM FILES (X86)\MICROSOFT VISUAL STUDIO\2019\COMMUNITY\VC\TOOLS\MSVC\14.27.29110\INCLUDE\CLIMITS
C:\PROGRAM FILES (X86)\MICROSOFT VISUAL STUDIO\2019\COMMUNITY\VC\TOOLS\MSVC\14.27.29110\INCLUDE\LIMITS.H
C:\PROGRAM FILES (X86)\MICROSOFT VISUAL STUDIO\2019\COMMUNITY\VC\TOOLS\MSVC\14.27.29110\INCLUDE\CMATH
C:\PROGRAM FILES (X86)\MICROSOFT VISUAL STUDIO\2019\COMMUNITY\VC\TOOLS\MSVC\14.27.29110\INCLUDE\YVALS.H
C:\PROGRAM FILES (X86)\WINDOWS KITS\10\INCLUDE\10.0.18362.0\UCRT\CRTDBG.H
C:\PROGRAM FILES (X86)\WINDOWS KITS\10\INCLUDE\10.0.18362.0\UCRT\CORECRT.H
C:\PROGRAM FILES (X86)\MICROSOFT VISUAL STUDIO\2019\COMMUNITY\VC\TOOLS\MSVC\14.27.29110\INCLUDE\VCRUNTIME_NEW_DEBUG.H
C:\PROGRAM FILES (X86)\MICROSOFT VISUAL STUDIO\2019\COMMUNITY\VC\TOOLS\MSVC\14.27.29110\INCLUDE\VCRUNTIME_NEW.H
C:\PROGRAM FILES (X86)\MICROSOFT VISUAL STUDIO\2019\COMMUNITY\VC\TOOLS\MSVC\14.27.29110\INCLUDE\CRTDEFS.H
C:\PROGRAM FILES (X86)\MICROSOFT VISUAL STUDIO\2019\COMMUNITY\VC\TOOLS\MSVC\14.27.29110\INCLUDE\USE_ANSI.H
C:\PROGRAM FILES (X86)\MICROSOFT VISUAL STUDIO\2019\COMMUNITY\VC\TOOLS\MSVC\14.27.29110\INCLUDE\CSTDLIB
C:\PROGRAM FILES (X86)\WINDOWS KITS\10\INCLUDE\10.0.18362.0\UCRT\MATH.H
C:\PROGRAM FILES (X86)\WINDOWS KITS\10\INCLUDE\10.0.18362.0\UCRT\CORECRT_MATH.H
C:\PROGRAM FILES (X86)\WINDOWS KITS\10\INCLUDE\10.0.18362.0\UCRT\STDLIB.H
C:\PROGRAM FILES (X86)\WINDOWS KITS\10\INCLUDE\10.0.18362.0\UCRT\CORECRT_MALLOC.H
C:\PROGRAM FILES (X86)\WINDOWS KITS\10\INCLUDE\10.0.18362.0\UCRT\CORECRT_SEARCH.H
C:\PROGRAM FILES (X86)\WINDOWS KITS\10\INCLUDE\10.0.18362.0\UCRT\STDDEF.H
C:\PROGRAM FILES (X86)\WINDOWS KITS\10\INCLUDE\10.0.18362.0\UCRT\CORECRT_WSTDLIB.H
C:\PROGRAM FILES (X86)\MICROSOFT VISUAL STUDIO\2019\COMMUNITY\VC\TOOLS\MSVC\14.27.29110\INCLUDE\XTR1COMMON
C:\PROGRAM FILES (X86)\MICROSOFT VISUAL STUDIO\2019\COMMUNITY\VC\TOOLS\MSVC\14.27.29110\INCLUDE\CSTDIO
C:\PROGRAM FILES (X86)\WINDOWS KITS\10\INCLUDE\10.0.18362.0\UCRT\STDIO.H
C:\PROGRAM FILES (X86)\WINDOWS KITS\10\INCLUDE\10.0.18362.0\UCRT\CORECRT_WSTDIO.H
C:\PROGRAM FILES (X86)\WINDOWS KITS\10\INCLUDE\10.0.18362.0\UCRT\CORECRT_STDIO_CONFIG.H
C:\PROGRAM FILES (X86)\MICROSOFT VISUAL STUDIO\2019\COMMUNITY\VC\TOOLS\MSVC\14.27.29110\INCLUDE\ITERATOR
C:\PROGRAM FILES (X86)\MICROSOFT VISUAL STUDIO\2019\COMMUNITY\VC\TOOLS\MSVC\14.27.29110\INCLUDE\IOSFWD
C:\PROGRAM FILES (X86)\MICROSOFT VISUAL STUDIO\2019\COMMUNITY\VC\TOOLS\MSVC\14.27.29110\INCLUDE\CSTRING
C:\PROGRAM FILES (X86)\WINDOWS KITS\10\INCLUDE\10.0.18362.0\UCRT\STRING.H
C:\PROGRAM FILES (X86)\WINDOWS KITS\10\INCLUDE\10.0.18362.0\UCRT\CORECRT_MEMORY.H
C:\PROGRAM FILES (X86)\WINDOWS KITS\10\INCLUDE\10.0.18362.0\UCRT\CORECRT_MEMCPY_S.H
C:\PROGRAM FILES (X86)\WINDOWS KITS\10\INCLUDE\10.0.18362.0\UCRT\ERRNO.H
C:\PROGRAM FILES (X86)\MICROSOFT VISUAL STUDIO\2019\COMMUNITY\VC\TOOLS\MSVC\14.27.29110\INCLUDE\VCRUNTIME_STRING.H
C:\PROGRAM FILES (X86)\WINDOWS KITS\10\INCLUDE\10.0.18362.0\UCRT\CORECRT_WSTRING.H
C:\PROGRAM FILES (X86)\MICROSOFT VISUAL STUDIO\2019\COMMUNITY\VC\TOOLS\MSVC\14.27.29110\INCLUDE\CWCHAR
C:\PROGRAM FILES (X86)\WINDOWS KITS\10\INCLUDE\10.0.18362.0\UCRT\WCHAR.H
C:\PROGRAM FILES (X86)\WINDOWS KITS\10\INCLUDE\10.0.18362.0\UCRT\CORECRT_WCONIO.H
C:\PROGRAM FILES (X86)\WINDOWS KITS\10\INCLUDE\10.0.18362.0\UCRT\CORECRT_WCTYPE.H
C:\PROGRAM FILES (X86)\WINDOWS KITS\10\INCLUDE\10.0.18362.0\UCRT\CORECRT_WDIRECT.H
C:\PROGRAM FILES (X86)\WINDOWS KITS\10\INCLUDE\10.0.18362.0\UCRT\CORECRT_WIO.H
C:\PROGRAM FILES (X86)\WINDOWS KITS\10\INCLUDE\10.0.18362.0\UCRT\CORECRT_SHARE.H
C:\PROGRAM FILES (X86)\WINDOWS KITS\10\INCLUDE\10.0.18362.0\UCRT\CORECRT_WPROCESS.H
C:\PROGRAM FILES (X86)\WINDOWS KITS\10\INCLUDE\10.0.18362.0\UCRT\CORECRT_WTIME.H
C:\PROGRAM FILES (X86)\WINDOWS KITS\10\INCLUDE\10.0.18362.0\UCRT\SYS\STAT.H
C:\PROGRAM FILES (X86)\WINDOWS KITS\10\INCLUDE\10.0.18362.0\UCRT\SYS\TYPES.H
C:\PROGRAM FILES (X86)\MICROSOFT VISUAL STUDIO\2019\COMMUNITY\VC\TOOLS\MSVC\14.27.29110\INCLUDE\XSTDDEF
C:\PROGRAM FILES (X86)\MICROSOFT VISUAL STUDIO\2019\COMMUNITY\VC\TOOLS\MSVC\14.27.29110\INCLUDE\CSTDDEF
C:\PROGRAM FILES (X86)\MICROSOFT VISUAL STUDIO\2019\COMMUNITY\VC\TOOLS\MSVC\14.27.29110\INCLUDE\INITIALIZER_LIST
C:\PROGRAM FILES (X86)\MICROSOFT VISUAL STUDIO\2019\COMMUNITY\VC\TOOLS\MSVC\14.27.29110\INCLUDE\XUTILITY
C:\PROGRAM FILES (X86)\MICROSOFT VISUAL STUDIO\2019\COMMUNITY\VC\TOOLS\MSVC\14.27.29110\INCLUDE\UTILITY
C:\PROGRAM FILES (X86)\MICROSOFT VISUAL STUDIO\2019\COMMUNITY\VC\TOOLS\MSVC\14.27.29110\INCLUDE\TYPE_TRAITS
C:\PROGRAM FILES (X86)\MICROSOFT VISUAL STUDIO\2019\COMMUNITY\VC\TOOLS\MSVC\14.27.29110\INCLUDE\STREAMBUF
C:\PROGRAM FILES (X86)\MICROSOFT VISUAL STUDIO\2019\COMMUNITY\VC\TOOLS\MSVC\14.27.29110\INCLUDE\XIOSBASE
C:\PROGRAM FILES (X86)\WINDOWS KITS\10\INCLUDE\10.0.18362.0\UCRT\SHARE.H
C:\PROGRAM FILES (X86)\MICROSOFT VISUAL STUDIO\2019\COMMUNITY\VC\TOOLS\MSVC\14.27.29110\INCLUDE\SYSTEM_ERROR
C:\PROGRAM FILES (X86)\MICROSOFT VISUAL STUDIO\2019\COMMUNITY\VC\TOOLS\MSVC\14.27.29110\INCLUDE\__MSVC_SYSTEM_ERROR_ABI.HPP
C:\PROGRAM FILES (X86)\MICROSOFT VISUAL STUDIO\2019\COMMUNITY\VC\TOOLS\MSVC\14.27.29110\INCLUDE\CERRNO
C:\PROGRAM FILES (X86)\MICROSOFT VISUAL STUDIO\2019\COMMUNITY\VC\TOOLS\MSVC\14.27.29110\INCLUDE\STDEXCEPT
C:\PROGRAM FILES (X86)\MICROSOFT VISUAL STUDIO\2019\COMMUNITY\VC\TOOLS\MSVC\14.27.29110\INCLUDE\EXCEPTION
C:\PROGRAM FILES (X86)\WINDOWS KITS\10\INCLUDE\10.0.18362.0\UCRT\MALLOC.H
C:\PROGRAM FILES (X86)\MICROSOFT VISUAL STUDIO\2019\COMMUNITY\VC\TOOLS\MSVC\14.27.29110\INCLUDE\VCRUNTIME_EXCEPTION.H
C:\PROGRAM FILES (X86)\MICROSOFT VISUAL STUDIO\2019\COMMUNITY\VC\TOOLS\MSVC\14.27.29110\INCLUDE\EH.H
C:\PROGRAM FILES (X86)\WINDOWS KITS\10\INCLUDE\10.0.18362.0\UCRT\CORECRT_TERMINATE.H
C:\PROGRAM FILES (X86)\MICROSOFT VISUAL STUDIO\2019\COMMUNITY\VC\TOOLS\MSVC\14.27.29110\INCLUDE\XSTRING
C:\PROGRAM FILES (X86)\MICROSOFT VISUAL STUDIO\2019\COMMUNITY\VC\TOOLS\MSVC\14.27.29110\INCLUDE\XMEMORY
C:\PROGRAM FILES (X86)\MICROSOFT VISUAL STUDIO\2019\COMMUNITY\VC\TOOLS\MSVC\14.27.29110\INCLUDE\CSTDINT
C:\PROGRAM FILES (X86)\MICROSOFT VISUAL STUDIO\2019\COMMUNITY\VC\TOOLS\MSVC\14.27.29110\INCLUDE\STDINT.H
C:\PROGRAM FILES (X86)\MICROSOFT VISUAL STUDIO\2019\COMMUNITY\VC\TOOLS\MSVC\14.27.29110\INCLUDE\LIMITS
C:\PROGRAM FILES (X86)\MICROSOFT VISUAL STUDIO\2019\COMMUNITY\VC\TOOLS\MSVC\14.27.29110\INCLUDE\CFLOAT
C:\PROGRAM FILES (X86)\WINDOWS KITS\10\INCLUDE\10.0.18362.0\UCRT\FLOAT.H
C:\PROGRAM FILES (X86)\MICROSOFT VISUAL STUDIO\2019\COMMUNITY\VC\TOOLS\MSVC\14.27.29110\INCLUDE\NEW
C:\PROGRAM FILES (X86)\MICROSOFT VISUAL STUDIO\2019\COMMUNITY\VC\TOOLS\MSVC\14.27.29110\INCLUDE\XATOMIC.H
C:\PROGRAM FILES (X86)\MICROSOFT VISUAL STUDIO\2019\COMMUNITY\VC\TOOLS\MSVC\14.27.29110\INCLUDE\INTRIN0.H
C:\PROGRAM FILES (X86)\MICROSOFT VISUAL STUDIO\2019\COMMUNITY\VC\TOOLS\MSVC\14.27.29110\INCLUDE\XCALL_ONCE.H
C:\PROGRAM FILES (X86)\MICROSOFT VISUAL STUDIO\2019\COMMUNITY\VC\TOOLS\MSVC\14.27.29110\INCLUDE\XERRC.H
C:\PROGRAM FILES (X86)\MICROSOFT VISUAL STUDIO\2019\COMMUNITY\VC\TOOLS\MSVC\14.27.29110\INCLUDE\ATOMIC
C:\PROGRAM FILES (X86)\MICROSOFT VISUAL STUDIO\2019\COMMUNITY\VC\TOOLS\MSVC\14.27.29110\INCLUDE\XLOCALE
C:\PROGRAM FILES (X86)\MICROSOFT VISUAL STUDIO\2019\COMMUNITY\VC\TOOLS\MSVC\14.27.29110\INCLUDE\MEMORY
C:\PROGRAM FILES (X86)\MICROSOFT VISUAL STUDIO\2019\COMMUNITY\VC\TOOLS\MSVC\14.27.29110\INCLUDE\TYPEINFO
C:\PROGRAM FILES (X86)\MICROSOFT VISUAL STUDIO\2019\COMMUNITY\VC\TOOLS\MSVC\14.27.29110\INCLUDE\VCRUNTIME_TYPEINFO.H
C:\PROGRAM FILES (X86)\MICROSOFT VISUAL STUDIO\2019\COMMUNITY\VC\TOOLS\MSVC\14.27.29110\INCLUDE\XFACET
C:\PROGRAM FILES (X86)\MICROSOFT VISUAL STUDIO\2019\COMMUNITY\VC\TOOLS\MSVC\14.27.29110\INCLUDE\XLOCINFO
C:\PROGRAM FILES (X86)\MICROSOFT VISUAL STUDIO\2019\COMMUNITY\VC\TOOLS\MSVC\14.27.29110\INCLUDE\XLOCINFO.H
C:\PROGRAM FILES (X86)\WINDOWS KITS\10\INCLUDE\10.0.18362.0\UCRT\CTYPE.H
C:\PROGRAM FILES (X86)\WINDOWS KITS\10\INCLUDE\10.0.18362.0\UCRT\LOCALE.H
D:\GIT\OPENGL\OPENGL\OPENGL\DEPENDENCIES\GLEW\INCLUDE\GLEW.H
C:\PROGRAM FILES (X86)\WINDOWS KITS\10\INCLUDE\10.0.18362.0\UM\GL\GLU.H
C:\PROGRAM FILES (X86)\WINDOWS KITS\10\INCLUDE\10.0.18362.0\SHARED\WINAPIFAMILY.H
C:\PROGRAM FILES (X86)\WINDOWS KITS\10\INCLUDE\10.0.18362.0\SHARED\WINPACKAGEFAMILY.H
C:\PROGRAM FILES (X86)\WINDOWS KITS\10\INCLUDE\10.0.18362.0\UM\GL\GL.H
D:\GIT\OPENGL\OPENGL\OPENGL\DEPENDENCIES\GLFW\INCLUDE\GLFW3.H
D:\GIT\OPENGL\OPENGL\OPENGL\DEPENDENCIES\GLM\INCLUDE\GLM.HPP
D:\GIT\OPENGL\OPENGL\OPENGL\DEPENDENCIES\GLM\INCLUDE\DETAIL\_FIXES.HPP
C:\PROGRAM FILES (X86)\MICROSOFT VISUAL STUDIO\2019\COMMUNITY\VC\TOOLS\MSVC\14.27.29110\INCLUDE\CASSERT
C:\PROGRAM FILES (X86)\WINDOWS KITS\10\INCLUDE\10.0.18362.0\UCRT\ASSERT.H
D:\GIT\OPENGL\OPENGL\OPENGL\DEPENDENCIES\GLM\INCLUDE\FWD.HPP
D:\GIT\OPENGL\OPENGL\OPENGL\DEPENDENCIES\GLM\INCLUDE\DETAIL\TYPE_INT.HPP
D:\GIT\OPENGL\OPENGL\OPENGL\DEPENDENCIES\GLM\INCLUDE\DETAIL\SETUP.HPP
D:\GIT\OPENGL\OPENGL\OPENGL\DEPENDENCIES\GLM\INCLUDE\SIMD\PLATFORM.H
C:\PROGRAM FILES (X86)\MICROSOFT VISUAL STUDIO\2019\COMMUNITY\VC\TOOLS\MSVC\14.27.29110\INCLUDE\EMMINTRIN.H
C:\PROGRAM FILES (X86)\MICROSOFT VISUAL STUDIO\2019\COMMUNITY\VC\TOOLS\MSVC\14.27.29110\INCLUDE\XMMINTRIN.H
C:\PROGRAM FILES (X86)\MICROSOFT VISUAL STUDIO\2019\COMMUNITY\VC\TOOLS\MSVC\14.27.29110\INCLUDE\MMINTRIN.H
D:\GIT\OPENGL\OPENGL\OPENGL\DEPENDENCIES\GLM\INCLUDE\DETAIL\TYPE_FLOAT.HPP
D:\GIT\OPENGL\OPENGL\OPENGL\DEPENDENCIES\GLM\INCLUDE\DETAIL\TYPE_VEC.HPP
D:\GIT\OPENGL\OPENGL\OPENGL\DEPENDENCIES\GLM\INCLUDE\DETAIL\PRECISION.HPP
D:\GIT\OPENGL\OPENGL\OPENGL\DEPENDENCIES\GLM\INCLUDE\DETAIL\TYPE_MAT.HPP
D:\GIT\OPENGL\OPENGL\OPENGL\DEPENDENCIES\GLM\INCLUDE\VEC2.HPP
D:\GIT\OPENGL\OPENGL\OPENGL\DEPENDENCIES\GLM\INCLUDE\DETAIL\TYPE_VEC2.HPP
D:\GIT\OPENGL\OPENGL\OPENGL\DEPENDENCIES\GLM\INCLUDE\DETAIL\TYPE_VEC2.INL
D:\GIT\OPENGL\OPENGL\OPENGL\DEPENDENCIES\GLM\INCLUDE\VEC3.HPP
D:\GIT\OPENGL\OPENGL\OPENGL\DEPENDENCIES\GLM\INCLUDE\DETAIL\TYPE_VEC3.HPP
D:\GIT\OPENGL\OPENGL\OPENGL\DEPENDENCIES\GLM\INCLUDE\DETAIL\TYPE_VEC3.INL
D:\GIT\OPENGL\OPENGL\OPENGL\DEPENDENCIES\GLM\INCLUDE\VEC4.HPP
D:\GIT\OPENGL\OPENGL\OPENGL\DEPENDENCIES\GLM\INCLUDE\DETAIL\TYPE_VEC4.HPP
D:\GIT\OPENGL\OPENGL\OPENGL\DEPENDENCIES\GLM\INCLUDE\DETAIL\TYPE_VEC4.INL
D:\GIT\OPENGL\OPENGL\OPENGL\DEPENDENCIES\GLM\INCLUDE\DETAIL\TYPE_VEC4_SIMD.INL
D:\GIT\OPENGL\OPENGL\OPENGL\DEPENDENCIES\GLM\INCLUDE\MAT2X2.HPP
D:\GIT\OPENGL\OPENGL\OPENGL\DEPENDENCIES\GLM\INCLUDE\DETAIL\TYPE_MAT2X2.HPP
D:\GIT\OPENGL\OPENGL\OPENGL\DEPENDENCIES\GLM\INCLUDE\DETAIL\TYPE_MAT2X2.INL
D:\GIT\OPENGL\OPENGL\OPENGL\DEPENDENCIES\GLM\INCLUDE\DETAIL\FUNC_MATRIX.HPP
D:\GIT\OPENGL\OPENGL\OPENGL\DEPENDENCIES\GLM\INCLUDE\MAT2X3.HPP
D:\GIT\OPENGL\OPENGL\OPENGL\DEPENDENCIES\GLM\INCLUDE\DETAIL\TYPE_MAT2X3.HPP
D:\GIT\OPENGL\OPENGL\OPENGL\DEPENDENCIES\GLM\INCLUDE\DETAIL\TYPE_MAT2X3.INL
D:\GIT\OPENGL\OPENGL\OPENGL\DEPENDENCIES\GLM\INCLUDE\MAT2X4.HPP
D:\GIT\OPENGL\OPENGL\OPENGL\DEPENDENCIES\GLM\INCLUDE\DETAIL\TYPE_MAT2X4.HPP
D:\GIT\OPENGL\OPENGL\OPENGL\DEPENDENCIES\GLM\INCLUDE\DETAIL\TYPE_MAT2X4.INL
D:\GIT\OPENGL\OPENGL\OPENGL\DEPENDENCIES\GLM\INCLUDE\MAT3X2.HPP
D:\GIT\OPENGL\OPENGL\OPENGL\DEPENDENCIES\GLM\INCLUDE\DETAIL\TYPE_MAT3X2.HPP
D:\GIT\OPENGL\OPENGL\OPENGL\DEPENDENCIES\GLM\INCLUDE\DETAIL\TYPE_MAT3X2.INL
D:\GIT\OPENGL\OPENGL\OPENGL\DEPENDENCIES\GLM\INCLUDE\MAT3X3.HPP
D:\GIT\OPENGL\OPENGL\OPENGL\DEPENDENCIES\GLM\INCLUDE\DETAIL\TYPE_MAT3X3.HPP
D:\GIT\OPENGL\OPENGL\OPENGL\DEPENDENCIES\GLM\INCLUDE\DETAIL\TYPE_MAT3X3.INL
D:\GIT\OPENGL\OPENGL\OPENGL\DEPENDENCIES\GLM\INCLUDE\MAT3X4.HPP
D:\GIT\OPENGL\OPENGL\OPENGL\DEPENDENCIES\GLM\INCLUDE\DETAIL\TYPE_MAT3X4.HPP
D:\GIT\OPENGL\OPENGL\OPENGL\DEPENDENCIES\GLM\INCLUDE\DETAIL\TYPE_MAT3X4.INL
D:\GIT\OPENGL\OPENGL\OPENGL\DEPENDENCIES\GLM\INCLUDE\MAT4X2.HPP
D:\GIT\OPENGL\OPENGL\OPENGL\DEPENDENCIES\GLM\INCLUDE\DETAIL\TYPE_MAT4X2.HPP
D:\GIT\OPENGL\OPENGL\OPENGL\DEPENDENCIES\GLM\INCLUDE\DETAIL\TYPE_MAT4X2.INL
D:\GIT\OPENGL\OPENGL\OPENGL\DEPENDENCIES\GLM\INCLUDE\MAT4X3.HPP
D:\GIT\OPENGL\OPENGL\OPENGL\DEPENDENCIES\GLM\INCLUDE\DETAIL\TYPE_MAT4X3.HPP
D:\GIT\OPENGL\OPENGL\OPENGL\DEPENDENCIES\GLM\INCLUDE\DETAIL\TYPE_MAT4X3.INL
D:\GIT\OPENGL\OPENGL\OPENGL\DEPENDENCIES\GLM\INCLUDE\MAT4X4.HPP
D:\GIT\OPENGL\OPENGL\OPENGL\DEPENDENCIES\GLM\INCLUDE\DETAIL\TYPE_MAT4X4.HPP
D:\GIT\OPENGL\OPENGL\OPENGL\DEPENDENCIES\GLM\INCLUDE\DETAIL\TYPE_MAT4X4.INL
D:\GIT\OPENGL\OPENGL\OPENGL\DEPENDENCIES\GLM\INCLUDE\DETAIL\TYPE_MAT4X4_SIMD.INL
D:\GIT\OPENGL\OPENGL\OPENGL\DEPENDENCIES\GLM\INCLUDE\DETAIL\FUNC_MATRIX.INL
D:\GIT\OPENGL\OPENGL\OPENGL\DEPENDENCIES\GLM\INCLUDE\GEOMETRIC.HPP
D:\GIT\OPENGL\OPENGL\OPENGL\DEPENDENCIES\GLM\INCLUDE\DETAIL\FUNC_GEOMETRIC.HPP
D:\GIT\OPENGL\OPENGL\OPENGL\DEPENDENCIES\GLM\INCLUDE\DETAIL\FUNC_GEOMETRIC.INL
D:\GIT\OPENGL\OPENGL\OPENGL\DEPENDENCIES\GLM\INCLUDE\DETAIL\FUNC_EXPONENTIAL.HPP
D:\GIT\OPENGL\OPENGL\OPENGL\DEPENDENCIES\GLM\INCLUDE\DETAIL\TYPE_VEC1.HPP
D:\GIT\OPENGL\OPENGL\OPENGL\DEPENDENCIES\GLM\INCLUDE\DETAIL\TYPE_VEC1.INL
D:\GIT\OPENGL\OPENGL\OPENGL\DEPENDENCIES\GLM\INCLUDE\DETAIL\FUNC_EXPONENTIAL.INL
D:\GIT\OPENGL\OPENGL\OPENGL\DEPENDENCIES\GLM\INCLUDE\DETAIL\FUNC_VECTOR_RELATIONAL.HPP
D:\GIT\OPENGL\OPENGL\OPENGL\DEPENDENCIES\GLM\INCLUDE\DETAIL\FUNC_VECTOR_RELATIONAL.INL
D:\GIT\OPENGL\OPENGL\OPENGL\DEPENDENCIES\GLM\INCLUDE\DETAIL\FUNC_VECTOR_RELATIONAL_SIMD.INL
D:\GIT\OPENGL\OPENGL\OPENGL\DEPENDENCIES\GLM\INCLUDE\DETAIL\_VECTORIZE.HPP
D:\GIT\OPENGL\OPENGL\OPENGL\DEPENDENCIES\GLM\INCLUDE\DETAIL\FUNC_EXPONENTIAL_SIMD.INL
D:\GIT\OPENGL\OPENGL\OPENGL\DEPENDENCIES\GLM\INCLUDE\SIMD\EXPONENTIAL.H
D:\GIT\OPENGL\OPENGL\OPENGL\DEPENDENCIES\GLM\INCLUDE\DETAIL\FUNC_COMMON.HPP
D:\GIT\OPENGL\OPENGL\OPENGL\DEPENDENCIES\GLM\INCLUDE\DETAIL\FUNC_COMMON.INL
D:\GIT\OPENGL\OPENGL\OPENGL\DEPENDENCIES\GLM\INCLUDE\DETAIL\FUNC_COMMON_SIMD.INL
D:\GIT\OPENGL\OPENGL\OPENGL\DEPENDENCIES\GLM\INCLUDE\SIMD\COMMON.H
C:\PROGRAM FILES (X86)\MICROSOFT VISUAL STUDIO\2019\COMMUNITY\VC\TOOLS\MSVC\14.27.29110\INCLUDE\IMMINTRIN.H
C:\PROGRAM FILES (X86)\MICROSOFT VISUAL STUDIO\2019\COMMUNITY\VC\TOOLS\MSVC\14.27.29110\INCLUDE\WMMINTRIN.H
C:\PROGRAM FILES (X86)\MICROSOFT VISUAL STUDIO\2019\COMMUNITY\VC\TOOLS\MSVC\14.27.29110\INCLUDE\NMMINTRIN.H
C:\PROGRAM FILES (X86)\MICROSOFT VISUAL STUDIO\2019\COMMUNITY\VC\TOOLS\MSVC\14.27.29110\INCLUDE\SMMINTRIN.H
C:\PROGRAM FILES (X86)\MICROSOFT VISUAL STUDIO\2019\COMMUNITY\VC\TOOLS\MSVC\14.27.29110\INCLUDE\TMMINTRIN.H
C:\PROGRAM FILES (X86)\MICROSOFT VISUAL STUDIO\2019\COMMUNITY\VC\TOOLS\MSVC\14.27.29110\INCLUDE\PMMINTRIN.H
C:\PROGRAM FILES (X86)\MICROSOFT VISUAL STUDIO\2019\COMMUNITY\VC\TOOLS\MSVC\14.27.29110\INCLUDE\ZMMINTRIN.H
D:\GIT\OPENGL\OPENGL\OPENGL\DEPENDENCIES\GLM\INCLUDE\DETAIL\FUNC_GEOMETRIC_SIMD.INL
D:\GIT\OPENGL\OPENGL\OPENGL\DEPENDENCIES\GLM\INCLUDE\SIMD\GEOMETRIC.H
D:\GIT\OPENGL\OPENGL\OPENGL\DEPENDENCIES\GLM\INCLUDE\DETAIL\FUNC_MATRIX_SIMD.INL
D:\GIT\OPENGL\OPENGL\OPENGL\DEPENDENCIES\GLM\INCLUDE\SIMD\MATRIX.H
D:\GIT\OPENGL\OPENGL\OPENGL\DEPENDENCIES\GLM\INCLUDE\TRIGONOMETRIC.HPP
D:\GIT\OPENGL\OPENGL\OPENGL\DEPENDENCIES\GLM\INCLUDE\DETAIL\FUNC_TRIGONOMETRIC.HPP
D:\GIT\OPENGL\OPENGL\OPENGL\DEPENDENCIES\GLM\INCLUDE\DETAIL\FUNC_TRIGONOMETRIC.INL
D:\GIT\OPENGL\OPENGL\OPENGL\DEPENDENCIES\GLM\INCLUDE\DETAIL\FUNC_TRIGONOMETRIC_SIMD.INL
D:\GIT\OPENGL\OPENGL\OPENGL\DEPENDENCIES\GLM\INCLUDE\EXPONENTIAL.HPP
D:\GIT\OPENGL\OPENGL\OPENGL\DEPENDENCIES\GLM\INCLUDE\COMMON.HPP
D:\GIT\OPENGL\OPENGL\OPENGL\DEPENDENCIES\GLM\INCLUDE\PACKING.HPP
D:\GIT\OPENGL\OPENGL\OPENGL\DEPENDENCIES\GLM\INCLUDE\DETAIL\FUNC_PACKING.HPP
D:\GIT\OPENGL\OPENGL\OPENGL\DEPENDENCIES\GLM\INCLUDE\DETAIL\FUNC_PACKING.INL
D:\GIT\OPENGL\OPENGL\OPENGL\DEPENDENCIES\GLM\INCLUDE\DETAIL\TYPE_HALF.HPP
D:\GIT\OPENGL\OPENGL\OPENGL\DEPENDENCIES\GLM\INCLUDE\DETAIL\TYPE_HALF.INL
D:\GIT\OPENGL\OPENGL\OPENGL\DEPENDENCIES\GLM\INCLUDE\DETAIL\FUNC_PACKING_SIMD.INL
D:\GIT\OPENGL\OPENGL\OPENGL\DEPENDENCIES\GLM\INCLUDE\MATRIX.HPP
D:\GIT\OPENGL\OPENGL\OPENGL\DEPENDENCIES\GLM\INCLUDE\VECTOR_RELATIONAL.HPP
D:\GIT\OPENGL\OPENGL\OPENGL\DEPENDENCIES\GLM\INCLUDE\INTEGER.HPP
D:\GIT\OPENGL\OPENGL\OPENGL\DEPENDENCIES\GLM\INCLUDE\DETAIL\FUNC_INTEGER.HPP
D:\GIT\OPENGL\OPENGL\OPENGL\DEPENDENCIES\GLM\INCLUDE\DETAIL\FUNC_INTEGER.INL
C:\PROGRAM FILES (X86)\MICROSOFT VISUAL STUDIO\2019\COMMUNITY\VC\TOOLS\MSVC\14.27.29110\INCLUDE\INTRIN.H
C:\PROGRAM FILES (X86)\MICROSOFT VISUAL STUDIO\2019\COMMUNITY\VC\TOOLS\MSVC\14.27.29110\INCLUDE\SETJMP.H
C:\PROGRAM FILES (X86)\MICROSOFT VISUAL STUDIO\2019\COMMUNITY\VC\TOOLS\MSVC\14.27.29110\INCLUDE\AMMINTRIN.H
C:\PROGRAM FILES (X86)\MICROSOFT VISUAL STUDIO\2019\COMMUNITY\VC\TOOLS\MSVC\14.27.29110\INCLUDE\MM3DNOW.H
D:\GIT\OPENGL\OPENGL\OPENGL\DEPENDENCIES\GLM\INCLUDE\DETAIL\FUNC_INTEGER_SIMD.INL
D:\GIT\OPENGL\OPENGL\OPENGL\DEPENDENCIES\GLM\INCLUDE\SIMD\INTEGER.H
D:\GIT\OPENGL\OPENGL\OPENGL\DEPENDENCIES\GLM\INCLUDE\GTC\MATRIX_TRANSFORM.HPP
D:\GIT\OPENGL\OPENGL\OPENGL\DEPENDENCIES\GLM\INCLUDE\GTC\CONSTANTS.HPP
D:\GIT\OPENGL\OPENGL\OPENGL\DEPENDENCIES\GLM\INCLUDE\GTC\CONSTANTS.INL
D:\GIT\OPENGL\OPENGL\OPENGL\DEPENDENCIES\GLM\INCLUDE\GTC\MATRIX_TRANSFORM.INL
D:\GIT\OPENGL\OPENGL\OPENGL\DEPENDENCIES\GLM\INCLUDE\GTC\TYPE_PTR.HPP
D:\GIT\OPENGL\OPENGL\OPENGL\DEPENDENCIES\GLM\INCLUDE\GTC\QUATERNION.HPP
D:\GIT\OPENGL\OPENGL\OPENGL\DEPENDENCIES\GLM\INCLUDE\GTC\QUATERNION.INL
D:\GIT\OPENGL\OPENGL\OPENGL\DEPENDENCIES\GLM\INCLUDE\GTC\QUATERNION_SIMD.INL
D:\GIT\OPENGL\OPENGL\OPENGL\DEPENDENCIES\GLM\INCLUDE\GTC\TYPE_PTR.INL
D:\GIT\OPENGL\OPENGL\OPENGL\DEPENDENCIES\SOIL2\INCLUDE\SOIL2.H
^D:\GIT\GRAFIKAKOMPUTERTEORI14\OPENGL\MAIN.CPP
C:\WINDOWS\GLOBALIZATION\SORTING\SORTDEFAULT.NLS
C:\PROGRAM FILES (X86)\MICROSOFT VISUAL STUDIO\2019\COMMUNITY\VC\TOOLS\MSVC\14.27.29110\BIN\HOSTX86\X86\1033\CLUI.DLL
C:\WINDOWS\SYSTEM32\TZRES.DLL
D:\GIT\GRAFIKAKOMPUTERTEORI14\OPENGL\LIBS.H
C:\PROGRAM FILES (X86)\MICROSOFT VISUAL STUDIO\2019\COMMUNITY\VC\TOOLS\MSVC\14.27.29110\INCLUDE\IOSTREAM
C:\PROGRAM FILES (X86)\MICROSOFT VISUAL STUDIO\2019\COMMUNITY\VC\TOOLS\MSVC\14.27.29110\INCLUDE\YVALS_CORE.H
C:\PROGRAM FILES (X86)\MICROSOFT VISUAL STUDIO\2019\COMMUNITY\VC\TOOLS\MSVC\14.27.29110\INCLUDE\VCRUNTIME.H
C:\PROGRAM FILES (X86)\MICROSOFT VISUAL STUDIO\2019\COMMUNITY\VC\TOOLS\MSVC\14.27.29110\INCLUDE\SAL.H
C:\PROGRAM FILES (X86)\MICROSOFT VISUAL STUDIO\2019\COMMUNITY\VC\TOOLS\MSVC\14.27.29110\INCLUDE\CONCURRENCYSAL.H
C:\PROGRAM FILES (X86)\MICROSOFT VISUAL STUDIO\2019\COMMUNITY\VC\TOOLS\MSVC\14.27.29110\INCLUDE\VADEFS.H
C:\PROGRAM FILES (X86)\MICROSOFT VISUAL STUDIO\2019\COMMUNITY\VC\TOOLS\MSVC\14.27.29110\INCLUDE\XKEYCHECK.H
C:\PROGRAM FILES (X86)\MICROSOFT VISUAL STUDIO\2019\COMMUNITY\VC\TOOLS\MSVC\14.27.29110\INCLUDE\ISTREAM
C:\PROGRAM FILES (X86)\MICROSOFT VISUAL STUDIO\2019\COMMUNITY\VC\TOOLS\MSVC\14.27.29110\INCLUDE\OSTREAM
C:\PROGRAM FILES (X86)\MICROSOFT VISUAL STUDIO\2019\COMMUNITY\VC\TOOLS\MSVC\14.27.29110\INCLUDE\IOS
C:\PROGRAM FILES (X86)\MICROSOFT VISUAL STUDIO\2019\COMMUNITY\VC\TOOLS\MSVC\14.27.29110\INCLUDE\XLOCNUM
C:\PROGRAM FILES (X86)\MICROSOFT VISUAL STUDIO\2019\COMMUNITY\VC\TOOLS\MSVC\14.27.29110\INCLUDE\CLIMITS
C:\PROGRAM FILES (X86)\MICROSOFT VISUAL STUDIO\2019\COMMUNITY\VC\TOOLS\MSVC\14.27.29110\INCLUDE\LIMITS.H
C:\PROGRAM FILES (X86)\MICROSOFT VISUAL STUDIO\2019\COMMUNITY\VC\TOOLS\MSVC\14.27.29110\INCLUDE\CMATH
C:\PROGRAM FILES (X86)\MICROSOFT VISUAL STUDIO\2019\COMMUNITY\VC\TOOLS\MSVC\14.27.29110\INCLUDE\YVALS.H
C:\PROGRAM FILES (X86)\WINDOWS KITS\10\INCLUDE\10.0.18362.0\UCRT\CRTDBG.H
C:\PROGRAM FILES (X86)\WINDOWS KITS\10\INCLUDE\10.0.18362.0\UCRT\CORECRT.H
C:\PROGRAM FILES (X86)\MICROSOFT VISUAL STUDIO\2019\COMMUNITY\VC\TOOLS\MSVC\14.27.29110\INCLUDE\VCRUNTIME_NEW_DEBUG.H
C:\PROGRAM FILES (X86)\MICROSOFT VISUAL STUDIO\2019\COMMUNITY\VC\TOOLS\MSVC\14.27.29110\INCLUDE\VCRUNTIME_NEW.H
C:\PROGRAM FILES (X86)\MICROSOFT VISUAL STUDIO\2019\COMMUNITY\VC\TOOLS\MSVC\14.27.29110\INCLUDE\CRTDEFS.H
C:\PROGRAM FILES (X86)\MICROSOFT VISUAL STUDIO\2019\COMMUNITY\VC\TOOLS\MSVC\14.27.29110\INCLUDE\USE_ANSI.H
C:\PROGRAM FILES (X86)\MICROSOFT VISUAL STUDIO\2019\COMMUNITY\VC\TOOLS\MSVC\14.27.29110\INCLUDE\CSTDLIB
C:\PROGRAM FILES (X86)\WINDOWS KITS\10\INCLUDE\10.0.18362.0\UCRT\MATH.H
C:\PROGRAM FILES (X86)\WINDOWS KITS\10\INCLUDE\10.0.18362.0\UCRT\CORECRT_MATH.H
C:\PROGRAM FILES (X86)\WINDOWS KITS\10\INCLUDE\10.0.18362.0\UCRT\STDLIB.H
C:\PROGRAM FILES (X86)\WINDOWS KITS\10\INCLUDE\10.0.18362.0\UCRT\CORECRT_MALLOC.H
C:\PROGRAM FILES (X86)\WINDOWS KITS\10\INCLUDE\10.0.18362.0\UCRT\CORECRT_SEARCH.H
C:\PROGRAM FILES (X86)\WINDOWS KITS\10\INCLUDE\10.0.18362.0\UCRT\STDDEF.H
C:\PROGRAM FILES (X86)\WINDOWS KITS\10\INCLUDE\10.0.18362.0\UCRT\CORECRT_WSTDLIB.H
C:\PROGRAM FILES (X86)\MICROSOFT VISUAL STUDIO\2019\COMMUNITY\VC\TOOLS\MSVC\14.27.29110\INCLUDE\XTR1COMMON
C:\PROGRAM FILES (X86)\MICROSOFT VISUAL STUDIO\2019\COMMUNITY\VC\TOOLS\MSVC\14.27.29110\INCLUDE\CSTDIO
C:\PROGRAM FILES (X86)\WINDOWS KITS\10\INCLUDE\10.0.18362.0\UCRT\STDIO.H
C:\PROGRAM FILES (X86)\WINDOWS KITS\10\INCLUDE\10.0.18362.0\UCRT\CORECRT_WSTDIO.H
C:\PROGRAM FILES (X86)\WINDOWS KITS\10\INCLUDE\10.0.18362.0\UCRT\CORECRT_STDIO_CONFIG.H
C:\PROGRAM FILES (X86)\MICROSOFT VISUAL STUDIO\2019\COMMUNITY\VC\TOOLS\MSVC\14.27.29110\INCLUDE\ITERATOR
C:\PROGRAM FILES (X86)\MICROSOFT VISUAL STUDIO\2019\COMMUNITY\VC\TOOLS\MSVC\14.27.29110\INCLUDE\IOSFWD
C:\PROGRAM FILES (X86)\MICROSOFT VISUAL STUDIO\2019\COMMUNITY\VC\TOOLS\MSVC\14.27.29110\INCLUDE\CSTRING
C:\PROGRAM FILES (X86)\WINDOWS KITS\10\INCLUDE\10.0.18362.0\UCRT\STRING.H
C:\PROGRAM FILES (X86)\WINDOWS KITS\10\INCLUDE\10.0.18362.0\UCRT\CORECRT_MEMORY.H
C:\PROGRAM FILES (X86)\WINDOWS KITS\10\INCLUDE\10.0.18362.0\UCRT\CORECRT_MEMCPY_S.H
C:\PROGRAM FILES (X86)\WINDOWS KITS\10\INCLUDE\10.0.18362.0\UCRT\ERRNO.H
C:\PROGRAM FILES (X86)\MICROSOFT VISUAL STUDIO\2019\COMMUNITY\VC\TOOLS\MSVC\14.27.29110\INCLUDE\VCRUNTIME_STRING.H
C:\PROGRAM FILES (X86)\WINDOWS KITS\10\INCLUDE\10.0.18362.0\UCRT\CORECRT_WSTRING.H
C:\PROGRAM FILES (X86)\MICROSOFT VISUAL STUDIO\2019\COMMUNITY\VC\TOOLS\MSVC\14.27.29110\INCLUDE\CWCHAR
C:\PROGRAM FILES (X86)\WINDOWS KITS\10\INCLUDE\10.0.18362.0\UCRT\WCHAR.H
C:\PROGRAM FILES (X86)\WINDOWS KITS\10\INCLUDE\10.0.18362.0\UCRT\CORECRT_WCONIO.H
C:\PROGRAM FILES (X86)\WINDOWS KITS\10\INCLUDE\10.0.18362.0\UCRT\CORECRT_WCTYPE.H
C:\PROGRAM FILES (X86)\WINDOWS KITS\10\INCLUDE\10.0.18362.0\UCRT\CORECRT_WDIRECT.H
C:\PROGRAM FILES (X86)\WINDOWS KITS\10\INCLUDE\10.0.18362.0\UCRT\CORECRT_WIO.H
C:\PROGRAM FILES (X86)\WINDOWS KITS\10\INCLUDE\10.0.18362.0\UCRT\CORECRT_SHARE.H
C:\PROGRAM FILES (X86)\WINDOWS KITS\10\INCLUDE\10.0.18362.0\UCRT\CORECRT_WPROCESS.H
C:\PROGRAM FILES (X86)\WINDOWS KITS\10\INCLUDE\10.0.18362.0\UCRT\CORECRT_WTIME.H
C:\PROGRAM FILES (X86)\WINDOWS KITS\10\INCLUDE\10.0.18362.0\UCRT\SYS\STAT.H
C:\PROGRAM FILES (X86)\WINDOWS KITS\10\INCLUDE\10.0.18362.0\UCRT\SYS\TYPES.H
C:\PROGRAM FILES (X86)\MICROSOFT VISUAL STUDIO\2019\COMMUNITY\VC\TOOLS\MSVC\14.27.29110\INCLUDE\XSTDDEF
C:\PROGRAM FILES (X86)\MICROSOFT VISUAL STUDIO\2019\COMMUNITY\VC\TOOLS\MSVC\14.27.29110\INCLUDE\CSTDDEF
C:\PROGRAM FILES (X86)\MICROSOFT VISUAL STUDIO\2019\COMMUNITY\VC\TOOLS\MSVC\14.27.29110\INCLUDE\INITIALIZER_LIST
C:\PROGRAM FILES (X86)\MICROSOFT VISUAL STUDIO\2019\COMMUNITY\VC\TOOLS\MSVC\14.27.29110\INCLUDE\XUTILITY
C:\PROGRAM FILES (X86)\MICROSOFT VISUAL STUDIO\2019\COMMUNITY\VC\TOOLS\MSVC\14.27.29110\INCLUDE\UTILITY
C:\PROGRAM FILES (X86)\MICROSOFT VISUAL STUDIO\2019\COMMUNITY\VC\TOOLS\MSVC\14.27.29110\INCLUDE\TYPE_TRAITS
C:\PROGRAM FILES (X86)\MICROSOFT VISUAL STUDIO\2019\COMMUNITY\VC\TOOLS\MSVC\14.27.29110\INCLUDE\STREAMBUF
C:\PROGRAM FILES (X86)\MICROSOFT VISUAL STUDIO\2019\COMMUNITY\VC\TOOLS\MSVC\14.27.29110\INCLUDE\XIOSBASE
C:\PROGRAM FILES (X86)\WINDOWS KITS\10\INCLUDE\10.0.18362.0\UCRT\SHARE.H
C:\PROGRAM FILES (X86)\MICROSOFT VISUAL STUDIO\2019\COMMUNITY\VC\TOOLS\MSVC\14.27.29110\INCLUDE\SYSTEM_ERROR
C:\PROGRAM FILES (X86)\MICROSOFT VISUAL STUDIO\2019\COMMUNITY\VC\TOOLS\MSVC\14.27.29110\INCLUDE\__MSVC_SYSTEM_ERROR_ABI.HPP
C:\PROGRAM FILES (X86)\MICROSOFT VISUAL STUDIO\2019\COMMUNITY\VC\TOOLS\MSVC\14.27.29110\INCLUDE\CERRNO
C:\PROGRAM FILES (X86)\MICROSOFT VISUAL STUDIO\2019\COMMUNITY\VC\TOOLS\MSVC\14.27.29110\INCLUDE\STDEXCEPT
C:\PROGRAM FILES (X86)\MICROSOFT VISUAL STUDIO\2019\COMMUNITY\VC\TOOLS\MSVC\14.27.29110\INCLUDE\EXCEPTION
C:\PROGRAM FILES (X86)\WINDOWS KITS\10\INCLUDE\10.0.18362.0\UCRT\MALLOC.H
C:\PROGRAM FILES (X86)\MICROSOFT VISUAL STUDIO\2019\COMMUNITY\VC\TOOLS\MSVC\14.27.29110\INCLUDE\VCRUNTIME_EXCEPTION.H
C:\PROGRAM FILES (X86)\MICROSOFT VISUAL STUDIO\2019\COMMUNITY\VC\TOOLS\MSVC\14.27.29110\INCLUDE\EH.H
C:\PROGRAM FILES (X86)\WINDOWS KITS\10\INCLUDE\10.0.18362.0\UCRT\CORECRT_TERMINATE.H
C:\PROGRAM FILES (X86)\MICROSOFT VISUAL STUDIO\2019\COMMUNITY\VC\TOOLS\MSVC\14.27.29110\INCLUDE\XSTRING
C:\PROGRAM FILES (X86)\MICROSOFT VISUAL STUDIO\2019\COMMUNITY\VC\TOOLS\MSVC\14.27.29110\INCLUDE\XMEMORY
C:\PROGRAM FILES (X86)\MICROSOFT VISUAL STUDIO\2019\COMMUNITY\VC\TOOLS\MSVC\14.27.29110\INCLUDE\CSTDINT
C:\PROGRAM FILES (X86)\MICROSOFT VISUAL STUDIO\2019\COMMUNITY\VC\TOOLS\MSVC\14.27.29110\INCLUDE\STDINT.H
C:\PROGRAM FILES (X86)\MICROSOFT VISUAL STUDIO\2019\COMMUNITY\VC\TOOLS\MSVC\14.27.29110\INCLUDE\LIMITS
C:\PROGRAM FILES (X86)\MICROSOFT VISUAL STUDIO\2019\COMMUNITY\VC\TOOLS\MSVC\14.27.29110\INCLUDE\CFLOAT
C:\PROGRAM FILES (X86)\WINDOWS KITS\10\INCLUDE\10.0.18362.0\UCRT\FLOAT.H
C:\PROGRAM FILES (X86)\MICROSOFT VISUAL STUDIO\2019\COMMUNITY\VC\TOOLS\MSVC\14.27.29110\INCLUDE\NEW
C:\PROGRAM FILES (X86)\MICROSOFT VISUAL STUDIO\2019\COMMUNITY\VC\TOOLS\MSVC\14.27.29110\INCLUDE\XATOMIC.H
C:\PROGRAM FILES (X86)\MICROSOFT VISUAL STUDIO\2019\COMMUNITY\VC\TOOLS\MSVC\14.27.29110\INCLUDE\INTRIN0.H
C:\PROGRAM FILES (X86)\MICROSOFT VISUAL STUDIO\2019\COMMUNITY\VC\TOOLS\MSVC\14.27.29110\INCLUDE\XCALL_ONCE.H
C:\PROGRAM FILES (X86)\MICROSOFT VISUAL STUDIO\2019\COMMUNITY\VC\TOOLS\MSVC\14.27.29110\INCLUDE\XERRC.H
C:\PROGRAM FILES (X86)\MICROSOFT VISUAL STUDIO\2019\COMMUNITY\VC\TOOLS\MSVC\14.27.29110\INCLUDE\ATOMIC
C:\PROGRAM FILES (X86)\MICROSOFT VISUAL STUDIO\2019\COMMUNITY\VC\TOOLS\MSVC\14.27.29110\INCLUDE\XLOCALE
C:\PROGRAM FILES (X86)\MICROSOFT VISUAL STUDIO\2019\COMMUNITY\VC\TOOLS\MSVC\14.27.29110\INCLUDE\MEMORY
C:\PROGRAM FILES (X86)\MICROSOFT VISUAL STUDIO\2019\COMMUNITY\VC\TOOLS\MSVC\14.27.29110\INCLUDE\TYPEINFO
C:\PROGRAM FILES (X86)\MICROSOFT VISUAL STUDIO\2019\COMMUNITY\VC\TOOLS\MSVC\14.27.29110\INCLUDE\VCRUNTIME_TYPEINFO.H
C:\PROGRAM FILES (X86)\MICROSOFT VISUAL STUDIO\2019\COMMUNITY\VC\TOOLS\MSVC\14.27.29110\INCLUDE\XFACET
C:\PROGRAM FILES (X86)\MICROSOFT VISUAL STUDIO\2019\COMMUNITY\VC\TOOLS\MSVC\14.27.29110\INCLUDE\XLOCINFO
C:\PROGRAM FILES (X86)\MICROSOFT VISUAL STUDIO\2019\COMMUNITY\VC\TOOLS\MSVC\14.27.29110\INCLUDE\XLOCINFO.H
C:\PROGRAM FILES (X86)\WINDOWS KITS\10\INCLUDE\10.0.18362.0\UCRT\CTYPE.H
C:\PROGRAM FILES (X86)\WINDOWS KITS\10\INCLUDE\10.0.18362.0\UCRT\LOCALE.H
C:\PROGRAM FILES (X86)\MICROSOFT VISUAL STUDIO\2019\COMMUNITY\VC\TOOLS\MSVC\14.27.29110\INCLUDE\FSTREAM
C:\PROGRAM FILES (X86)\MICROSOFT VISUAL STUDIO\2019\COMMUNITY\VC\TOOLS\MSVC\14.27.29110\INCLUDE\STRING
C:\PROGRAM FILES (X86)\MICROSOFT VISUAL STUDIO\2019\COMMUNITY\VC\TOOLS\MSVC\14.27.29110\INCLUDE\CCTYPE
C:\PROGRAM FILES (X86)\MICROSOFT VISUAL STUDIO\2019\COMMUNITY\VC\TOOLS\MSVC\14.27.29110\INCLUDE\VECTOR
D:\GIT\GRAFIKAKOMPUTERTEORI14\OPENGL\DEPENDENCIES\GLEW\INCLUDE\GLEW.H
C:\PROGRAM FILES (X86)\WINDOWS KITS\10\INCLUDE\10.0.18362.0\UM\GL\GLU.H
C:\PROGRAM FILES (X86)\WINDOWS KITS\10\INCLUDE\10.0.18362.0\SHARED\WINAPIFAMILY.H
C:\PROGRAM FILES (X86)\WINDOWS KITS\10\INCLUDE\10.0.18362.0\SHARED\WINPACKAGEFAMILY.H
C:\PROGRAM FILES (X86)\WINDOWS KITS\10\INCLUDE\10.0.18362.0\UM\GL\GL.H
D:\GIT\GRAFIKAKOMPUTERTEORI14\OPENGL\DEPENDENCIES\GLFW\INCLUDE\GLFW3.H
D:\GIT\GRAFIKAKOMPUTERTEORI14\OPENGL\DEPENDENCIES\GLM\INCLUDE\GLM.HPP
D:\GIT\GRAFIKAKOMPUTERTEORI14\OPENGL\DEPENDENCIES\GLM\INCLUDE\DETAIL\_FIXES.HPP
C:\PROGRAM FILES (X86)\MICROSOFT VISUAL STUDIO\2019\COMMUNITY\VC\TOOLS\MSVC\14.27.29110\INCLUDE\CASSERT
C:\PROGRAM FILES (X86)\WINDOWS KITS\10\INCLUDE\10.0.18362.0\UCRT\ASSERT.H
D:\GIT\GRAFIKAKOMPUTERTEORI14\OPENGL\DEPENDENCIES\GLM\INCLUDE\FWD.HPP
D:\GIT\GRAFIKAKOMPUTERTEORI14\OPENGL\DEPENDENCIES\GLM\INCLUDE\DETAIL\TYPE_INT.HPP
D:\GIT\GRAFIKAKOMPUTERTEORI14\OPENGL\DEPENDENCIES\GLM\INCLUDE\DETAIL\SETUP.HPP
D:\GIT\GRAFIKAKOMPUTERTEORI14\OPENGL\DEPENDENCIES\GLM\INCLUDE\SIMD\PLATFORM.H
C:\PROGRAM FILES (X86)\MICROSOFT VISUAL STUDIO\2019\COMMUNITY\VC\TOOLS\MSVC\14.27.29110\INCLUDE\EMMINTRIN.H
C:\PROGRAM FILES (X86)\MICROSOFT VISUAL STUDIO\2019\COMMUNITY\VC\TOOLS\MSVC\14.27.29110\INCLUDE\XMMINTRIN.H
C:\PROGRAM FILES (X86)\MICROSOFT VISUAL STUDIO\2019\COMMUNITY\VC\TOOLS\MSVC\14.27.29110\INCLUDE\MMINTRIN.H
D:\GIT\GRAFIKAKOMPUTERTEORI14\OPENGL\DEPENDENCIES\GLM\INCLUDE\DETAIL\TYPE_FLOAT.HPP
D:\GIT\GRAFIKAKOMPUTERTEORI14\OPENGL\DEPENDENCIES\GLM\INCLUDE\DETAIL\TYPE_VEC.HPP
D:\GIT\GRAFIKAKOMPUTERTEORI14\OPENGL\DEPENDENCIES\GLM\INCLUDE\DETAIL\PRECISION.HPP
D:\GIT\GRAFIKAKOMPUTERTEORI14\OPENGL\DEPENDENCIES\GLM\INCLUDE\DETAIL\TYPE_MAT.HPP
D:\GIT\GRAFIKAKOMPUTERTEORI14\OPENGL\DEPENDENCIES\GLM\INCLUDE\VEC2.HPP
D:\GIT\GRAFIKAKOMPUTERTEORI14\OPENGL\DEPENDENCIES\GLM\INCLUDE\DETAIL\TYPE_VEC2.HPP
D:\GIT\GRAFIKAKOMPUTERTEORI14\OPENGL\DEPENDENCIES\GLM\INCLUDE\DETAIL\TYPE_VEC2.INL
D:\GIT\GRAFIKAKOMPUTERTEORI14\OPENGL\DEPENDENCIES\GLM\INCLUDE\VEC3.HPP
D:\GIT\GRAFIKAKOMPUTERTEORI14\OPENGL\DEPENDENCIES\GLM\INCLUDE\DETAIL\TYPE_VEC3.HPP
D:\GIT\GRAFIKAKOMPUTERTEORI14\OPENGL\DEPENDENCIES\GLM\INCLUDE\DETAIL\TYPE_VEC3.INL
D:\GIT\GRAFIKAKOMPUTERTEORI14\OPENGL\DEPENDENCIES\GLM\INCLUDE\VEC4.HPP
D:\GIT\GRAFIKAKOMPUTERTEORI14\OPENGL\DEPENDENCIES\GLM\INCLUDE\DETAIL\TYPE_VEC4.HPP
D:\GIT\GRAFIKAKOMPUTERTEORI14\OPENGL\DEPENDENCIES\GLM\INCLUDE\DETAIL\TYPE_VEC4.INL
D:\GIT\GRAFIKAKOMPUTERTEORI14\OPENGL\DEPENDENCIES\GLM\INCLUDE\DETAIL\TYPE_VEC4_SIMD.INL
D:\GIT\GRAFIKAKOMPUTERTEORI14\OPENGL\DEPENDENCIES\GLM\INCLUDE\MAT2X2.HPP
D:\GIT\GRAFIKAKOMPUTERTEORI14\OPENGL\DEPENDENCIES\GLM\INCLUDE\DETAIL\TYPE_MAT2X2.HPP
D:\GIT\GRAFIKAKOMPUTERTEORI14\OPENGL\DEPENDENCIES\GLM\INCLUDE\DETAIL\TYPE_MAT2X2.INL
D:\GIT\GRAFIKAKOMPUTERTEORI14\OPENGL\DEPENDENCIES\GLM\INCLUDE\DETAIL\FUNC_MATRIX.HPP
D:\GIT\GRAFIKAKOMPUTERTEORI14\OPENGL\DEPENDENCIES\GLM\INCLUDE\MAT2X3.HPP
D:\GIT\GRAFIKAKOMPUTERTEORI14\OPENGL\DEPENDENCIES\GLM\INCLUDE\DETAIL\TYPE_MAT2X3.HPP
D:\GIT\GRAFIKAKOMPUTERTEORI14\OPENGL\DEPENDENCIES\GLM\INCLUDE\DETAIL\TYPE_MAT2X3.INL
D:\GIT\GRAFIKAKOMPUTERTEORI14\OPENGL\DEPENDENCIES\GLM\INCLUDE\MAT2X4.HPP
D:\GIT\GRAFIKAKOMPUTERTEORI14\OPENGL\DEPENDENCIES\GLM\INCLUDE\DETAIL\TYPE_MAT2X4.HPP
D:\GIT\GRAFIKAKOMPUTERTEORI14\OPENGL\DEPENDENCIES\GLM\INCLUDE\DETAIL\TYPE_MAT2X4.INL
D:\GIT\GRAFIKAKOMPUTERTEORI14\OPENGL\DEPENDENCIES\GLM\INCLUDE\MAT3X2.HPP
D:\GIT\GRAFIKAKOMPUTERTEORI14\OPENGL\DEPENDENCIES\GLM\INCLUDE\DETAIL\TYPE_MAT3X2.HPP
D:\GIT\GRAFIKAKOMPUTERTEORI14\OPENGL\DEPENDENCIES\GLM\INCLUDE\DETAIL\TYPE_MAT3X2.INL
D:\GIT\GRAFIKAKOMPUTERTEORI14\OPENGL\DEPENDENCIES\GLM\INCLUDE\MAT3X3.HPP
D:\GIT\GRAFIKAKOMPUTERTEORI14\OPENGL\DEPENDENCIES\GLM\INCLUDE\DETAIL\TYPE_MAT3X3.HPP
D:\GIT\GRAFIKAKOMPUTERTEORI14\OPENGL\DEPENDENCIES\GLM\INCLUDE\DETAIL\TYPE_MAT3X3.INL
D:\GIT\GRAFIKAKOMPUTERTEORI14\OPENGL\DEPENDENCIES\GLM\INCLUDE\MAT3X4.HPP
D:\GIT\GRAFIKAKOMPUTERTEORI14\OPENGL\DEPENDENCIES\GLM\INCLUDE\DETAIL\TYPE_MAT3X4.HPP
D:\GIT\GRAFIKAKOMPUTERTEORI14\OPENGL\DEPENDENCIES\GLM\INCLUDE\DETAIL\TYPE_MAT3X4.INL
D:\GIT\GRAFIKAKOMPUTERTEORI14\OPENGL\DEPENDENCIES\GLM\INCLUDE\MAT4X2.HPP
D:\GIT\GRAFIKAKOMPUTERTEORI14\OPENGL\DEPENDENCIES\GLM\INCLUDE\DETAIL\TYPE_MAT4X2.HPP
D:\GIT\GRAFIKAKOMPUTERTEORI14\OPENGL\DEPENDENCIES\GLM\INCLUDE\DETAIL\TYPE_MAT4X2.INL
D:\GIT\GRAFIKAKOMPUTERTEORI14\OPENGL\DEPENDENCIES\GLM\INCLUDE\MAT4X3.HPP
D:\GIT\GRAFIKAKOMPUTERTEORI14\OPENGL\DEPENDENCIES\GLM\INCLUDE\DETAIL\TYPE_MAT4X3.HPP
D:\GIT\GRAFIKAKOMPUTERTEORI14\OPENGL\DEPENDENCIES\GLM\INCLUDE\DETAIL\TYPE_MAT4X3.INL
D:\GIT\GRAFIKAKOMPUTERTEORI14\OPENGL\DEPENDENCIES\GLM\INCLUDE\MAT4X4.HPP
D:\GIT\GRAFIKAKOMPUTERTEORI14\OPENGL\DEPENDENCIES\GLM\INCLUDE\DETAIL\TYPE_MAT4X4.HPP
D:\GIT\GRAFIKAKOMPUTERTEORI14\OPENGL\DEPENDENCIES\GLM\INCLUDE\DETAIL\TYPE_MAT4X4.INL
D:\GIT\GRAFIKAKOMPUTERTEORI14\OPENGL\DEPENDENCIES\GLM\INCLUDE\DETAIL\TYPE_MAT4X4_SIMD.INL
D:\GIT\GRAFIKAKOMPUTERTEORI14\OPENGL\DEPENDENCIES\GLM\INCLUDE\DETAIL\FUNC_MATRIX.INL
D:\GIT\GRAFIKAKOMPUTERTEORI14\OPENGL\DEPENDENCIES\GLM\INCLUDE\GEOMETRIC.HPP
D:\GIT\GRAFIKAKOMPUTERTEORI14\OPENGL\DEPENDENCIES\GLM\INCLUDE\DETAIL\FUNC_GEOMETRIC.HPP
D:\GIT\GRAFIKAKOMPUTERTEORI14\OPENGL\DEPENDENCIES\GLM\INCLUDE\DETAIL\FUNC_GEOMETRIC.INL
D:\GIT\GRAFIKAKOMPUTERTEORI14\OPENGL\DEPENDENCIES\GLM\INCLUDE\DETAIL\FUNC_EXPONENTIAL.HPP
D:\GIT\GRAFIKAKOMPUTERTEORI14\OPENGL\DEPENDENCIES\GLM\INCLUDE\DETAIL\TYPE_VEC1.HPP
D:\GIT\GRAFIKAKOMPUTERTEORI14\OPENGL\DEPENDENCIES\GLM\INCLUDE\DETAIL\TYPE_VEC1.INL
D:\GIT\GRAFIKAKOMPUTERTEORI14\OPENGL\DEPENDENCIES\GLM\INCLUDE\DETAIL\FUNC_EXPONENTIAL.INL
D:\GIT\GRAFIKAKOMPUTERTEORI14\OPENGL\DEPENDENCIES\GLM\INCLUDE\DETAIL\FUNC_VECTOR_RELATIONAL.HPP
D:\GIT\GRAFIKAKOMPUTERTEORI14\OPENGL\DEPENDENCIES\GLM\INCLUDE\DETAIL\FUNC_VECTOR_RELATIONAL.INL
D:\GIT\GRAFIKAKOMPUTERTEORI14\OPENGL\DEPENDENCIES\GLM\INCLUDE\DETAIL\FUNC_VECTOR_RELATIONAL_SIMD.INL
D:\GIT\GRAFIKAKOMPUTERTEORI14\OPENGL\DEPENDENCIES\GLM\INCLUDE\DETAIL\_VECTORIZE.HPP
D:\GIT\GRAFIKAKOMPUTERTEORI14\OPENGL\DEPENDENCIES\GLM\INCLUDE\DETAIL\FUNC_EXPONENTIAL_SIMD.INL
D:\GIT\GRAFIKAKOMPUTERTEORI14\OPENGL\DEPENDENCIES\GLM\INCLUDE\SIMD\EXPONENTIAL.H
D:\GIT\GRAFIKAKOMPUTERTEORI14\OPENGL\DEPENDENCIES\GLM\INCLUDE\DETAIL\FUNC_COMMON.HPP
D:\GIT\GRAFIKAKOMPUTERTEORI14\OPENGL\DEPENDENCIES\GLM\INCLUDE\DETAIL\FUNC_COMMON.INL
D:\GIT\GRAFIKAKOMPUTERTEORI14\OPENGL\DEPENDENCIES\GLM\INCLUDE\DETAIL\FUNC_COMMON_SIMD.INL
D:\GIT\GRAFIKAKOMPUTERTEORI14\OPENGL\DEPENDENCIES\GLM\INCLUDE\SIMD\COMMON.H
C:\PROGRAM FILES (X86)\MICROSOFT VISUAL STUDIO\2019\COMMUNITY\VC\TOOLS\MSVC\14.27.29110\INCLUDE\IMMINTRIN.H
C:\PROGRAM FILES (X86)\MICROSOFT VISUAL STUDIO\2019\COMMUNITY\VC\TOOLS\MSVC\14.27.29110\INCLUDE\WMMINTRIN.H
C:\PROGRAM FILES (X86)\MICROSOFT VISUAL STUDIO\2019\COMMUNITY\VC\TOOLS\MSVC\14.27.29110\INCLUDE\NMMINTRIN.H
C:\PROGRAM FILES (X86)\MICROSOFT VISUAL STUDIO\2019\COMMUNITY\VC\TOOLS\MSVC\14.27.29110\INCLUDE\SMMINTRIN.H
C:\PROGRAM FILES (X86)\MICROSOFT VISUAL STUDIO\2019\COMMUNITY\VC\TOOLS\MSVC\14.27.29110\INCLUDE\TMMINTRIN.H
C:\PROGRAM FILES (X86)\MICROSOFT VISUAL STUDIO\2019\COMMUNITY\VC\TOOLS\MSVC\14.27.29110\INCLUDE\PMMINTRIN.H
C:\PROGRAM FILES (X86)\MICROSOFT VISUAL STUDIO\2019\COMMUNITY\VC\TOOLS\MSVC\14.27.29110\INCLUDE\ZMMINTRIN.H
D:\GIT\GRAFIKAKOMPUTERTEORI14\OPENGL\DEPENDENCIES\GLM\INCLUDE\DETAIL\FUNC_GEOMETRIC_SIMD.INL
D:\GIT\GRAFIKAKOMPUTERTEORI14\OPENGL\DEPENDENCIES\GLM\INCLUDE\SIMD\GEOMETRIC.H
D:\GIT\GRAFIKAKOMPUTERTEORI14\OPENGL\DEPENDENCIES\GLM\INCLUDE\DETAIL\FUNC_MATRIX_SIMD.INL
D:\GIT\GRAFIKAKOMPUTERTEORI14\OPENGL\DEPENDENCIES\GLM\INCLUDE\SIMD\MATRIX.H
D:\GIT\GRAFIKAKOMPUTERTEORI14\OPENGL\DEPENDENCIES\GLM\INCLUDE\TRIGONOMETRIC.HPP
D:\GIT\GRAFIKAKOMPUTERTEORI14\OPENGL\DEPENDENCIES\GLM\INCLUDE\DETAIL\FUNC_TRIGONOMETRIC.HPP
D:\GIT\GRAFIKAKOMPUTERTEORI14\OPENGL\DEPENDENCIES\GLM\INCLUDE\DETAIL\FUNC_TRIGONOMETRIC.INL
D:\GIT\GRAFIKAKOMPUTERTEORI14\OPENGL\DEPENDENCIES\GLM\INCLUDE\DETAIL\FUNC_TRIGONOMETRIC_SIMD.INL
D:\GIT\GRAFIKAKOMPUTERTEORI14\OPENGL\DEPENDENCIES\GLM\INCLUDE\EXPONENTIAL.HPP
D:\GIT\GRAFIKAKOMPUTERTEORI14\OPENGL\DEPENDENCIES\GLM\INCLUDE\COMMON.HPP
D:\GIT\GRAFIKAKOMPUTERTEORI14\OPENGL\DEPENDENCIES\GLM\INCLUDE\PACKING.HPP
D:\GIT\GRAFIKAKOMPUTERTEORI14\OPENGL\DEPENDENCIES\GLM\INCLUDE\DETAIL\FUNC_PACKING.HPP
D:\GIT\GRAFIKAKOMPUTERTEORI14\OPENGL\DEPENDENCIES\GLM\INCLUDE\DETAIL\FUNC_PACKING.INL
D:\GIT\GRAFIKAKOMPUTERTEORI14\OPENGL\DEPENDENCIES\GLM\INCLUDE\DETAIL\TYPE_HALF.HPP
D:\GIT\GRAFIKAKOMPUTERTEORI14\OPENGL\DEPENDENCIES\GLM\INCLUDE\DETAIL\TYPE_HALF.INL
D:\GIT\GRAFIKAKOMPUTERTEORI14\OPENGL\DEPENDENCIES\GLM\INCLUDE\DETAIL\FUNC_PACKING_SIMD.INL
D:\GIT\GRAFIKAKOMPUTERTEORI14\OPENGL\DEPENDENCIES\GLM\INCLUDE\MATRIX.HPP
D:\GIT\GRAFIKAKOMPUTERTEORI14\OPENGL\DEPENDENCIES\GLM\INCLUDE\VECTOR_RELATIONAL.HPP
D:\GIT\GRAFIKAKOMPUTERTEORI14\OPENGL\DEPENDENCIES\GLM\INCLUDE\INTEGER.HPP
D:\GIT\GRAFIKAKOMPUTERTEORI14\OPENGL\DEPENDENCIES\GLM\INCLUDE\DETAIL\FUNC_INTEGER.HPP
D:\GIT\GRAFIKAKOMPUTERTEORI14\OPENGL\DEPENDENCIES\GLM\INCLUDE\DETAIL\FUNC_INTEGER.INL
C:\PROGRAM FILES (X86)\MICROSOFT VISUAL STUDIO\2019\COMMUNITY\VC\TOOLS\MSVC\14.27.29110\INCLUDE\INTRIN.H
C:\PROGRAM FILES (X86)\MICROSOFT VISUAL STUDIO\2019\COMMUNITY\VC\TOOLS\MSVC\14.27.29110\INCLUDE\SETJMP.H
C:\PROGRAM FILES (X86)\MICROSOFT VISUAL STUDIO\2019\COMMUNITY\VC\TOOLS\MSVC\14.27.29110\INCLUDE\AMMINTRIN.H
C:\PROGRAM FILES (X86)\MICROSOFT VISUAL STUDIO\2019\COMMUNITY\VC\TOOLS\MSVC\14.27.29110\INCLUDE\MM3DNOW.H
D:\GIT\GRAFIKAKOMPUTERTEORI14\OPENGL\DEPENDENCIES\GLM\INCLUDE\DETAIL\FUNC_INTEGER_SIMD.INL
D:\GIT\GRAFIKAKOMPUTERTEORI14\OPENGL\DEPENDENCIES\GLM\INCLUDE\SIMD\INTEGER.H
D:\GIT\GRAFIKAKOMPUTERTEORI14\OPENGL\DEPENDENCIES\GLM\INCLUDE\GTC\MATRIX_TRANSFORM.HPP
D:\GIT\GRAFIKAKOMPUTERTEORI14\OPENGL\DEPENDENCIES\GLM\INCLUDE\GTC\CONSTANTS.HPP
D:\GIT\GRAFIKAKOMPUTERTEORI14\OPENGL\DEPENDENCIES\GLM\INCLUDE\GTC\CONSTANTS.INL
D:\GIT\GRAFIKAKOMPUTERTEORI14\OPENGL\DEPENDENCIES\GLM\INCLUDE\GTC\MATRIX_TRANSFORM.INL
D:\GIT\GRAFIKAKOMPUTERTEORI14\OPENGL\DEPENDENCIES\GLM\INCLUDE\GTC\TYPE_PTR.HPP
D:\GIT\GRAFIKAKOMPUTERTEORI14\OPENGL\DEPENDENCIES\GLM\INCLUDE\GTC\QUATERNION.HPP
D:\GIT\GRAFIKAKOMPUTERTEORI14\OPENGL\DEPENDENCIES\GLM\INCLUDE\GTC\QUATERNION.INL
D:\GIT\GRAFIKAKOMPUTERTEORI14\OPENGL\DEPENDENCIES\GLM\INCLUDE\GTC\QUATERNION_SIMD.INL
D:\GIT\GRAFIKAKOMPUTERTEORI14\OPENGL\DEPENDENCIES\GLM\INCLUDE\GTC\TYPE_PTR.INL
D:\GIT\GRAFIKAKOMPUTERTEORI14\OPENGL\DEPENDENCIES\SOIL2\INCLUDE\SOIL2.H
