^D:\GIT\OPENGL\OPENGL\OPENGL\DEBUG\MAIN.OBJ
D:\GIT\OPENGL\OPENGL\OPENGL\DEBUG\OPENGL.EXE
D:\GIT\OPENGL\OPENGL\OPENGL\DEBUG\OPENGL.ILK
D:\GIT\OPENGL\OPENGL\OPENGL\DEBUG\OPENGL.PDB
^D:\GIT\GRAFIKAKOMPUTERTEORI14\OPENGL\DEBUG\MAIN.OBJ
D:\GIT\GRAFIKAKOMPUTERTEORI14\OPENGL\DEBUG\OPENGL.EXE
D:\GIT\GRAFIKAKOMPUTERTEORI14\OPENGL\DEBUG\OPENGL.ILK
D:\GIT\GRAFIKAKOMPUTERTEORI14\OPENGL\DEBUG\OPENGL.PDB
